…
Each one of these refineries produces between 360 and 630 thousand barrels of gasoline per day. Fun Fact: PADD stands for US Petroleum Administration for Defense Districts - Started in WW2 and used to monitor and manage fuel and diesel supply & usage. Also used in the Korea war. Now they are mainly used to gather data for the EIA
How does RBOB Futures trade?
Contracts are listed for every calendar month, and while they are technically physically deliverable, most traders close or roll their positions before delivery. This setup allows for both hedging and speculation without the need to actually handle gasoline.
What traders watch Seasonality (Summer Driving Season): Demand accelerates, inventories are often low, and EPA requires lower-volatility summer blends, which are more expensive to produce. volatility is the ease of evaporation
Inventory surprises: Weekly EIA reports (Wednesdays 9:30 a.m. CT) on gasoline inventories, especially in PADD 1b (Central Atlantic), are closely watched. Inventories here indicate how much gasoline could be delivered into RBOB contracts. Deviations from expectations can quickly move prices.
Disruptions
Weather and operational events (hurricanes, flooding, refinery outages, pipeline issues) threaten supply. Traders watch these closely, as even the threat of production loss can lift RBOB futures.
Most U.S. refining capacity is concentrated on the Gulf Coast (Texas and Louisiana). This makes gasoline production vulnerable to regional shocks.
Hurricane season (June–November): Overlap with summer driving season and low inventories. Major storms (Harvey 2017, Ida 2021) forced multiple refineries offline, cutting millions of barrels of capacity.
The Colonial Pipeline cyberattack (2021) shut flows to the East Coast for 5 days, causing shortages and a surge in New York Harbor prices. Terminals and storage hubs are also critical chokepoints.
Recovery is slow. After a disruption, supply chains take weeks to normalize as pipelines refill and storage tanks rebuild. Low stocks amplify price impacts.
Different gasoline grades (RBOB vs. CBOB) limit flexibility to reroute supply, making disruptions more persistent than in crude markets.
Traders price in both the immediate loss of supply and the lag in recovery. RBOB futures often react sharply, with calendar spreads and crack spreads used to express views on disruption risk.
Supply Demand Indicators
# A tibble: 128 × 3
date       EPOBG EPOBGRR
<date>     <dbl>   <dbl>
1 2025-08-01 66670   11804
2 2025-07-01 64646   11322
3 2025-06-01 59300    9098
4 2025-05-01 60402    9339
5 2025-04-01 56070    7460
6 2025-03-01 59593    6924
7 2025-02-01 57237    5761
8 2025-01-01 60243    6168
9 2024-12-01 60565    7287
10 2024-11-01 56813    6800
# ℹ 118 more rows
# A tibble: 531 × 16
date       R10_EPM0C R10_EPM0F R10_EPM0R R20_EPM0C R20_EPM0F R20_EPM0R
<date>         <dbl>     <dbl>     <dbl>     <dbl>     <dbl>     <dbl>
1 2025-10-31      1994      3177      1184      2153      2500       348
2 2025-10-24      2104      3296      1192      2153      2504       352
3 2025-10-17      2049      3211      1162      2200      2552       353
4 2025-10-10      2031      3218      1187      2202      2546       344
5 2025-10-03      2073      3248      1175      2148      2455       307
6 2025-09-26      2068      3237      1169      2166      2509       343
7 2025-09-19      2045      3178      1134      2204      2545       341
8 2025-09-12      2047      3174      1127      2154      2486       332
9 2025-09-05      2025      3136      1111      2115      2417       301
10 2025-08-29      2065      3235      1170      2176      2524       348
# ℹ 521 more rows
# ℹ 9 more variables: R30_EPM0C <dbl>, R30_EPM0F <dbl>, R30_EPM0R <dbl>,
#   R40_EPM0C <dbl>, R40_EPM0F <dbl>, R40_EPM0R <dbl>, R50_EPM0C <dbl>,
#   R50_EPM0F <dbl>, R50_EPM0R <dbl>
…
